Infer Pipeline — Continuous Data Analysis Tutorials
…
One numerical variable (Paired/Repeated Measure) — Mean of
Differences

set.seed(13)

gss_paired <- gss %>%
   mutate(
      hours_previous = hours + 5 - rpois(nrow(.), 4.8),
      diff = hours - hours_previous
   )

gss_paired %>%
   select(hours, hours_previous, diff)

## # A tibble: 500 × 3
##    hours hours_previous  diff
##    <dbl>          <dbl> <dbl>
##  1    50             49     1
##  2    31             33    -2
##  3    40             41    -1
##  4    40             43    -3
##  5    40             36     4
##  6    53             57    -4
##  7    32             32     0
##  8    20             19     1
##  9    40             38     2
## 10    40             44    -4
## # ℹ 490 more rows
…
